2 Perros sencillos + 2 gaseosas medianas/35000/7,18,5,1,12,13,/2,2,2,2,2,2,
2 hamburguesas sencillas + 2 gaseosas grandes + 1 crispetas mix grandes/40000/3,19,5,1,12,13,24,25,/2,2,2,2,2,2,1,1,
2 ordenes de nachos + 2 gaseosas + 2 chocolatinas medianas/37000/20,1,21,26,23,5,/2,2,2,6,6,4,
1 Crispetas mixtas grandes + 2 gaseosas/20000/25,24,1,/1,1,2,
especial: 3 hamburguesas + 3 gaseosas + 1 papas a la francesa/50000/3,4,5,19,1,9,/3,3,3,3,3,3,
Mexicano: 4 ordenes de nachos + guacamole + quezo mozarella + 4 gaseosas grandes/34000/20,23,5,2,/4,8,8,4,
